<svg xmlns="http://www.w3.org/2000/svg" width="17" height="17" viewBox="0 0 17 17">
  <g id="Group_508" data-name="Group 508" transform="translate(-46 -1167)">
    <circle id="Ellipse_18" data-name="Ellipse 18" cx="8.5" cy="8.5" r="8.5" transform="translate(46 1167)" fill="#fff101"/>
    <path id="iconfinder_Forward_sign_2638337" d="M4.248.3,3.8.751,7.113,4.067,3.8,7.383l.451.451L8.015,4.067ZM1.383.3.9.751,4.216,4.067.9,7.383l.451.451,3.8-3.767Z" transform="translate(50.1 1171.7)"/>
  </g>
</svg>
